Tidy Data
…
Tidy data wrangling

Compute the total R&D spending in each year

Approach 1: Create new total by adding each variable

fed_spend_wide %>%
  mutate(total = DHS + DOC + DOD + DOE + DOT + EPA + HHS + Interior + NASA + NIH + NSF + Other + USDA + VA) %>%
  select(year, total)

#> # A tibble: 42 × 2
#>     year  total
#>    <dbl>  <dbl>
#>  1  1976  86227
#>  2  1977  91807
#>  3  1978  94864
#>  4  1979  96601
#>  5  1980  96305
#>  6  1981  98304
#>  7  1982  95448
#>  8  1983  95010
#>  9  1984 105371
#> 10  1985 114818
#> # ℹ 32 more rows
…
#> # A tibble: 6 × 3
#>    year department rd_budget_mil
#>   <dbl> <chr>              <dbl>
#> 1  1976 DOD                35696
#> 2  1976 NASA               12513
#> 3  1976 DOE                10882
#> 4  1976 HHS                 9226
#> 5  1976 NIH                 8025
#> 6  1976 NSF                 2372

fed_spend_long %>%
    group_by(year) %>%
    summarise(total = sum(rd_budget_mil))

#> # A tibble: 42 × 2
#>     year  total
#>    <dbl>  <dbl>
#>  1  1976  86227
#>  2  1977  91807
#>  3  1978  94864
#>  4  1979  96601
#>  5  1980  96305
#>  6  1981  98304
#>  7  1982  95448
#>  8  1983  95010
#>  9  1984 105371
#> 10  1985 114818
#> # ℹ 32 more rows
…
